Data	Terminal	Horario	AlturadaMare	VelocidadedoVento	Chuva	CondicaoDiaAnterior	RecomendacaodaCapitania	Resultado
15/03/2020	Mar grande	5:00	1.20	22.5	0.33	Bom	Verde	Saiu
15/03/2020	Mar grande	6:00	1.60	23	0.33	Bom	Verde	Saiu
15/03/2020	Mar grande	7:00	1.80	23.5	0.33	Bom	Verde	Saiu
15/03/2020	Mar grande	8:00	1.90	24	0.33	Bom	Verde	Saiu
15/03/2020	Mar grande	9:00	1.80	24	0.33	Bom	Verde	Saiu
15/03/2020	Mar grande	10:00	1.60	24	0.33	Bom	Verde	Saiu
15/03/2020	Mar grande	11:00	1.20	23.5	0.33	Bom	Verde	Saiu
15/03/2020	Mar grande	12:00	0.70	23	0.33	Bom	Verde	Saiu
15/03/2020	Mar grande	13:00	0.50	22	0.33	Bom	Verde	Saiu
15/03/2020	Mar grande	14:00	0.40	21	0.33	Bom	Verde	Saiu
15/03/2020	Mar grande	15:00	0.50	20	0.33	Bom	Verde	Saiu
15/03/2020	Mar grande	16:00	0.60	19	0.33	Bom	Verde	Saiu
15/03/2020	Mar grande	17:00	1.00	19	0.33	Bom	Verde	Saiu
15/03/2020	Mar grande	18:00	1.50	19	0.33	Bom	Verde	Saiu
15/03/2020	Salvador	6:30	1.70	23	0.33	Bom	Verde	Saiu
15/03/2020	Salvador	7:30	1.90	23.5	0.33	Bom	Verde	Saiu
15/03/2020	Salvador	8:30	1.90	24	0.33	Bom	Verde	Saiu
15/03/2020	Salvador	9:30	1.70	24	0.33	Bom	Verde	Saiu
15/03/2020	Salvador	10:30	1.30	23.5	0.33	Bom	Verde	Saiu
15/03/2020	Salvador	11:30	0.90	23	0.33	Bom	Verde	Saiu
15/03/2020	Salvador	12:30	0.50	23	0.33	Bom	Verde	Saiu
15/03/2020	Salvador	13:30	0.40	21	0.33	Bom	Verde	Saiu
15/03/2020	Salvador	14:30	0.40	20	0.33	Bom	Verde	Saiu
15/03/2020	Salvador	15:30	0.50	20	0.33	Bom	Verde	Saiu
15/03/2020	Salvador	16:30	0.70	19	0.33	Bom	Verde	Saiu
15/03/2020	Salvador	17:30	1.30	19	0.33	Bom	Verde	Saiu
15/03/2020	Salvador	18:30	1.60	20	0.33	Bom	Verde	Saiu
15/03/2020	Salvador	19:30	1.80	22	0.33	Bom	Verde	Saiu
16/03/2020	Mar grande	5:00	0.90	20	0.33	Bom	Verde	Saiu
16/03/2020	Mar grande	6:00	1.20	20	0.33	Bom	Verde	Saiu
16/03/2020	Mar grande	7:00	1.40	19	0.33	Bom	Verde	Saiu
16/03/2020	Mar grande	8:00	1.60	18	0.33	Bom	Verde	Saiu
16/03/2020	Mar grande	9:00	1.70	18	0.33	Bom	Verde	Saiu
16/03/2020	Mar grande	10:00	1.60	18	0.33	Bom	Verde	Saiu
16/03/2020	Mar grande	11:00	1.40	18.5	0.33	Bom	Verde	Saiu
16/03/2020	Mar grande	12:00	1.20	19	0.33	Bom	Verde	Saiu
16/03/2020	Mar grande	13:00	0.90	18.5	0.33	Bom	Verde	Saiu
16/03/2020	Mar grande	14:00	0.70	18	0.33	Bom	Verde	Saiu
16/03/2020	Mar grande	15:00	0.60	17	0.33	Bom	Verde	Saiu
16/03/2020	Mar grande	16:00	0.70	16	0.33	Bom	Verde	Saiu
16/03/2020	Mar grande	17:00	0.80	18	0.33	Bom	Verde	Saiu
16/03/2020	Mar grande	18:00	1.00	20	0.33	Bom	Verde	Saiu
16/03/2020	Salvador	6:30	1.40	19.5	0.33	Bom	Verde	Saiu
16/03/2020	Salvador	7:30	1.60	18.5	0.33	Bom	Verde	Saiu
16/03/2020	Salvador	8:30	1.70	18	0.33	Bom	Verde	Saiu
16/03/2020	Salvador	9:30	1.70	18	0.33	Bom	Verde	Saiu
16/03/2020	Salvador	10:30	1.60	18.25	0.33	Bom	Verde	Saiu
16/03/2020	Salvador	11:30	1.40	18.75	0.33	Bom	Verde	Saiu
16/03/2020	Salvador	12:30	1.00	18.75	0.33	Bom	Verde	Saiu
16/03/2020	Salvador	13:30	0.40	18.25	0.33	Bom	Verde	Saiu
16/03/2020	Salvador	14:30	0.60	17.5	0.33	Bom	Verde	Saiu
16/03/2020	Salvador	15:30	0.60	16.5	0.33	Bom	Verde	Saiu
16/03/2020	Salvador	16:30	0.70	17	0.33	Bom	Verde	Saiu
16/03/2020	Salvador	17:30	0.80	19	0.33	Bom	Verde	Saiu
16/03/2020	Salvador	18:30	1.20	20.25	0.33	Bom	Verde	Saiu
16/03/2020	Salvador	19:30	1.40	20.75	0.42	Bom	Verde	Saiu
17/03/2020	Mar grande	5:00	0.80	13	0	Bom	Verde	Saiu
17/03/2020	Mar grande	6:00	0.90	12	0	Bom	Verde	Saiu
17/03/2020	Mar grande	7:00	1.10	12	0	Bom	Verde	Saiu
17/03/2020	Mar grande	8:00	1.20	12	0	Bom	Verde	Saiu
17/03/2020	Mar grande	9:00	1.50	13	0	Bom	Verde	Saiu
17/03/2020	Mar grande	10:00	1.60	14	0.42	Bom	Verde	Saiu
17/03/2020	Mar grande	11:00	1.60	16.5	0.42	Bom	Verde	Saiu
17/03/2020	Mar grande	12:00	1.50	19	0.42	Bom	Verde	Saiu
17/03/2020	Mar grande	13:00	1.40	18.5	0.42	Bom	Verde	Saiu
17/03/2020	Mar grande	14:00	1.10	18	0.42	Bom	Verde	Saiu
17/03/2020	Mar grande	15:00	0.80	19.5	0.42	Bom	Verde	Saiu
17/03/2020	Mar grande	16:00	0.70	21	0.42	Bom	Verde	Saiu
17/03/2020	Mar grande	17:00	0.70	22.5	0.42	Bom	Verde	Saiu
17/03/2020	Mar grande	18:00	0.80	24	0.42	Bom	Verde	Saiu
17/03/2020	Salvador	6:30	1.00	12.5	0	Bom	Verde	Saiu
17/03/2020	Salvador	7:30	1.30	12	0	Bom	Verde	Saiu
17/03/2020	Salvador	8:30	1.40	12	0	Bom	Verde	Saiu
17/03/2020	Salvador	9:30	1.50	13.5	0	Bom	Verde	Saiu
17/03/2020	Salvador	10:30	1.60	15.25	0.42	Bom	Verde	Saiu
17/03/2020	Salvador	11:30	1.50	17.75	0.42	Bom	Verde	Saiu
17/03/2020	Salvador	12:30	1.40	18.75	0.42	Bom	Verde	Saiu
17/03/2020	Salvador	13:30	1.30	18.25	0.42	Bom	Verde	Saiu
17/03/2020	Salvador	14:30	0.90	18.75	0.42	Bom	Verde	Saiu
17/03/2020	Salvador	15:30	0.80	20.25	0.42	Bom	Verde	Saiu
17/03/2020	Salvador	16:30	0.70	21.75	0.42	Bom	Verde	Saiu
17/03/2020	Salvador	17:30	0.70	23.25	0.42	Bom	Verde	Saiu
17/03/2020	Salvador	18:30	0.80	24.25	0.42	Bom	Verde	Saiu
17/03/2020	Salvador	19:30	1.00	24.75	0.42	Bom	Verde	Saiu
19/03/2020	Mar grande	5:00	0.80	12.5	2.5	Bom	Verde	Saiu
19/03/2020	Mar grande	6:00	0.70	11	2.5	Bom	Verde	Saiu
19/03/2020	Mar grande	7:00	0.60	9	2.5	Bom	Verde	Saiu
19/03/2020	Mar grande	8:00	0.70	7	2.5	Bom	Verde	Saiu
19/03/2020	Mar grande	9:00	0.80	5.5	2.5	Bom	Verde	Saiu
19/03/2020	Mar grande	10:00	1.20	4	2.5	Bom	Verde	Saiu
19/03/2020	Mar grande	11:00	1.50	3.5	2.5	Bom	Verde	Saiu
19/03/2020	Mar grande	12:00	1.70	3	2.5	Bom	Verde	Saiu
19/03/2020	Mar grande	13:00	1.80	8	2.5	Bom	Verde	Saiu
19/03/2020	Mar grande	14:00	1.70	13	2.5	Bom	Verde	Saiu
19/03/2020	Mar grande	15:00	1.50	16	2.5	Bom	Verde	Saiu
19/03/2020	Mar grande	16:00	1.30	19	2.5	Bom	Verde	Saiu
19/03/2020	Mar grande	17:00	0.90	20.5	2.5	Bom	Verde	Saiu
19/03/2020	Mar grande	18:00	0.70	22	2.5	Bom	Verde	Saiu
19/03/2020	Salvador	6:30	0.60	11.75	2.5	Bom	Verde	Saiu
19/03/2020	Salvador	7:30	0.60	10	2.5	Bom	Verde	Saiu
19/03/2020	Salvador	8:30	0.70	6.25	2.5	Bom	Verde	Saiu
19/03/2020	Salvador	9:30	0.90	4.75	2.5	Bom	Verde	Saiu
19/03/2020	Salvador	10:30	1.40	3.75	2.5	Bom	Verde	Saiu
19/03/2020	Salvador	11:30	1.60	3.25	2.5	Bom	Verde	Saiu
19/03/2020	Salvador	12:30	1.80	5.5	2.5	Bom	Verde	Saiu
19/03/2020	Salvador	13:30	1.80	10.5	2.5	Bom	Verde	Saiu
19/03/2020	Salvador	14:30	1.60	14.5	2.5	Bom	Verde	Saiu
19/03/2020	Salvador	15:30	1.40	17.5	2.5	Bom	Verde	Saiu
19/03/2020	Salvador	16:30	1.10	19.75	2.5	Bom	Verde	Saiu
19/03/2020	Salvador	17:30	0.70	21.25	2.5	Bom	Verde	Saiu
19/03/2020	Salvador	18:30	0.50	22.25	2.5	Bom	Verde	Saiu
19/03/2020	Salvador	19:30	0.50	22.75	2.5	Bom	Verde	Saiu
20/03/2020	Mar grande	5:00	1.20	23	0.63	Bom	Verde	Saiu
20/03/2020	Mar grande	8:00	0.50	22	0.63	Bom	Verde	Saiu
20/03/2020	Mar grande	13:00	1.90	16	0.63	Bom	Verde	Saiu
20/03/2020	Mar grande	16:30	1.40	24	0.63	Bom	Verde	Saiu
20/03/2020	Salvador	6:30	0.70	22.75	0.63	Bom	Verde	Saiu
20/03/2020	Salvador	9:30	0.80	21.25	0.63	Bom	Verde	Saiu
20/03/2020	Salvador	14:30	2.00	17.75	0.63	Bom	Verde	Saiu
20/03/2020	Salvador	18:00	0.50	27	0.63	Bom	Verde	Saiu
23/03/2020	Mar grande	5:00	1.90	25	1.67	Ruim	Vermelho	Saiu
23/03/2020	Mar grande	8:00	0.40	27	1.67	Ruim	Vermelho	Saiu
23/03/2020	Mar grande	13:00	1.50	27.5	1.67	Ruim	Vermelho	Saiu
23/03/2020	Mar grande	16:30	2.10	28.75	1.67	Ruim	Vermelho	Saiu
23/03/2020	Salvador	6:30	1.10	26.25	1.67	Ruim	Vermelho	Saiu
23/03/2020	Salvador	9:30	0.20	25.5	1.67	Ruim	Vermelho	Saiu
23/03/2020	Salvador	14:30	2.10	29	1.67	Ruim	Vermelho	Saiu
23/03/2020	Salvador	18:00	1.70	28	1.67	Ruim	Vermelho	Não Saiu
25/03/2020	Mar grande	5:00	2.20	35.5	0.63	Ruim	Vermelho	Não Saiu
25/03/2020	Mar grande	8:00	0.70	34	0.63	Ruim	Vermelho	Não Saiu
25/03/2020	Mar grande	13:00	0.80	32.5	0.63	Ruim	Vermelho	Não Saiu
25/03/2020	Mar grande	16:30	2.30	31.25	0.63	Ruim	Vermelho	Não Saiu
25/03/2020	Salvador	6:30	1.70	34.75	0.63	Ruim	Vermelho	Não Saiu
25/03/2020	Salvador	9:30	0.20	33.25	0.63	Ruim	Vermelho	Não Saiu
25/03/2020	Salvador	14:30	1.70	31.75	0.63	Ruim	Vermelho	Não Saiu
25/03/2020	Salvador	18:00	2.10	32	0.63	Ruim	Vermelho	Não Saiu
26/03/2020	Mar grande	5:00	2.10	26	1.88	Ruim	Vermelho	Não Saiu
26/03/2020	Mar grande	8:00	1.00	23	1.88	Ruim	Vermelho	Não Saiu
26/03/2020	Mar grande	13:00	0.50	28	1.88	Ruim	Vermelho	Não Saiu
26/03/2020	Mar grande	16:30	2.10	29.25	1.88	Ruim	Vermelho	Não Saiu
26/03/2020	Salvador	6:30	1.80	24.5	1.88	Ruim	Vermelho	Não Saiu
26/03/2020	Salvador	9:30	0.20	23.25	1.88	Ruim	Vermelho	Não Saiu
26/03/2020	Salvador	14:30	1.50	29	1.88	Ruim	Vermelho	Não Saiu
26/03/2020	Salvador	18:00	2.10	30	1.88	Ruim	Vermelho	Não Saiu
27/03/2020	Mar grande	5:00	2.10	30	0.63	Ruim	Vermelho	Não Saiu
27/03/2020	Mar grande	8:00	1.40	30	0.63	Ruim	Vermelho	Não Saiu
27/03/2020	Mar grande	13:00	0.40	28	0.63	Ruim	Vermelho	Não Saiu
27/03/2020	Mar grande	16:30	2.10	27	0.63	Ruim	Vermelho	Não Saiu
27/03/2020	Salvador	6:30	2.00	30	0.63	Ruim	Vermelho	Não Saiu
27/03/2020	Salvador	9:30	0.70	30.25	0.63	Ruim	Vermelho	Não Saiu
27/03/2020	Salvador	14:30	0.90	27	0.63	Ruim	Vermelho	Não Saiu
27/03/2020	Salvador	18:00	2.20	28	0.63	Ruim	Vermelho	Não Saiu
30/03/2020	Mar grande	5:00	1.60	23	0.42	Bom	Verde	Saiu
30/03/2020	Mar grande	8:00	1.70	21	0.42	Bom	Verde	Saiu
30/03/2020	Mar grande	13:00	0.50	19.5	0.42	Bom	Verde	Saiu
30/03/2020	Mar grande	16:30	1.30	16.75	0.42	Bom	Verde	Saiu
30/03/2020	Salvador	6:30	1.80	22.5	0.42	Bom	Verde	Saiu
30/03/2020	Salvador	9:30	1.40	20.75	0.42	Bom	Verde	Saiu
30/03/2020	Salvador	14:30	0.60	16.75	0.42	Bom	Verde	Saiu
30/03/2020	Salvador	18:00	1.60	17	0.42	Bom	Verde	Saiu
31/03/2020	Mar grande	5:00	1.20	16.5	0.42	Bom	Verde	Saiu
31/03/2020	Mar grande	8:00	1.70	13	0.42	Bom	Verde	Saiu
31/03/2020	Mar grande	13:00	0.70	20	0.42	Bom	Verde	Saiu
31/03/2020	Mar grande	16:30	0.90	19.25	0.42	Bom	Verde	Saiu
31/03/2020	Salvador	6:30	1.60	14.5	0.42	Bom	Verde	Saiu
31/03/2020	Salvador	9:30	1.60	13.25	0.42	Bom	Verde	Saiu
31/03/2020	Salvador	14:30	0.60	20.5	0.42	Bom	Verde	Saiu
31/03/2020	Salvador	18:00	1.40	20	0.42	Bom	Verde	Saiu
01/04/2020	Mar grande	5:00	0.90	15.5	0.44	Bom	Verde	Saiu
01/04/2020	Mar grande	8:00	1.50	14	0.44	Bom	Verde	Saiu
01/04/2020	Mar grande	13:00	1.00	17.5	0.44	Bom	Verde	Saiu
01/04/2020	Mar grande	16:30	0.70	19.75	0	Bom	Verde	Saiu
01/04/2020	Salvador	6:30	1.30	14.75	0.44	Bom	Verde	Saiu
01/04/2020	Salvador	9:30	1.60	14	0.44	Bom	Verde	Saiu
01/04/2020	Salvador	14:30	0.70	19	0.44	Bom	Verde	Saiu
01/04/2020	Salvador	18:00	1.00	22	0	Bom	Verde	Saiu
02/04/2020	Mar grande	5:00	0.70	19	0	Bom	Verde	Saiu
02/04/2020	Mar grande	8:00	1.20	16	0	Bom	Verde	Saiu
02/04/2020	Mar grande	13:00	1.40	17	0	Bom	Verde	Saiu
02/04/2020	Mar grande	16:30	0.60	14.5	0	Bom	Verde	Saiu
02/04/2020	Salvador	6:30	0.90	17.5	0	Bom	Verde	Saiu
02/04/2020	Salvador	9:30	1.50	15.75	0	Bom	Verde	Saiu
02/04/2020	Salvador	14:30	0.90	15.5	0	Bom	Verde	Saiu
02/04/2020	Salvador	18:00	0.60	16	0	Bom	Verde	Saiu
03/04/2020	Mar grande	5:00	0.60	16.5	0	Bom	Verde	Saiu
03/04/2020	Mar grande	8:00	0.80	15	0	Bom	Verde	Saiu
03/04/2020	Mar grande	13:00	1.80	11	0	Bom	Verde	Saiu
03/04/2020	Mar grande	16:30	0.70	19.25	0	Bom	Verde	Saiu
03/04/2020	Salvador	6:30	0.60	15.75	0	Bom	Verde	Saiu
03/04/2020	Salvador	9:30	1.30	14.75	0	Bom	Verde	Saiu
03/04/2020	Salvador	14:30	1.50	12.75	0	Bom	Verde	Saiu
03/04/2020	Salvador	18:00	0.50	23	0	Bom	Verde	Saiu
07/04/2020	Mar grande	5:00	2.00	21	0.42	Ruim	Verde	Saiu
07/04/2020	Mar grande	8:00	0.00	18	0.42	Ruim	Verde	Saiu
07/04/2020	Mar grande	13:00	1.80	17.5	0	Ruim	Verde	Saiu
07/04/2020	Mar grande	16:30	1.50	18.75	0	Ruim	Verde	Saiu
07/04/2020	Salvador	6:30	0.80	19.5	0.42	Ruim	Verde	Saiu
07/04/2020	Salvador	9:30	-0.10	16.5	0	Ruim	Verde	Saiu
07/04/2020	Salvador	14:30	2.50	18	0	Ruim	Verde	Saiu
07/04/2020	Salvador	18:00	1.80	21	0	Ruim	Verde	Saiu
08/04/2020	Mar grande	5:00	2.20	13	0	Bom	Verde	Saiu
08/04/2020	Mar grande	8:00	0.30	13	0	Bom	Verde	Saiu
08/04/2020	Mar grande	13:00	1.20	11	0	Bom	Verde	Saiu
08/04/2020	Mar grande	16:30	2.60	17.5	0	Bom	Verde	Saiu
08/04/2020	Salvador	6:30	1.50	13	0	Bom	Verde	Saiu
08/04/2020	Salvador	9:30	-0.20	13	0	Bom	Verde	Saiu
08/04/2020	Salvador	14:30	2.20	13.25	0	Bom	Verde	Saiu
08/04/2020	Salvador	18:00	2.20	19	0	Bom	Verde	Saiu
13/04/2020	Mar grande	5:00	1.50	16.5	2.92	Bom	Verde	Saiu
13/04/2020	Mar grande	8:00	1.90	12	2.92	Bom	Verde	Saiu
13/04/2020	Mar grande	13:00	0.40	2.5	2.92	Bom	Verde	Saiu
13/04/2020	Mar grande	16:30	0.90	16.25	2.92	Bom	Verde	Saiu
13/04/2020	Salvador	6:30	1.80	14.25	2.92	Bom	Verde	Saiu
13/04/2020	Salvador	9:30	1.60	9	2.92	Bom	Verde	Saiu
13/04/2020	Salvador	14:30	0.40	4.25	2.92	Bom	Verde	Saiu
13/04/2020	Salvador	18:00	1.50	23	2.92	Bom	Verde	Saiu
14/04/2020	Mar grande	5:00	1.00	18.5	0.83	Bom	Verde	Saiu
14/04/2020	Mar grande	8:00	1.70	18	0.83	Bom	Verde	Saiu
14/04/2020	Mar grande	13:00	0.70	20.5	0.83	Bom	Verde	Saiu
14/04/2020	Mar grande	16:30	0.70	19.25	0	Bom	Verde	Saiu
14/04/2020	Salvador	6:30	1.50	18	0.83	Bom	Verde	Saiu
14/04/2020	Salvador	9:30	1.70	18	0.83	Bom	Verde	Saiu
14/04/2020	Salvador	14:30	0.60	20.5	0.83	Bom	Verde	Saiu
14/04/2020	Salvador	18:00	1.20	20	0	Bom	Verde	Saiu
15/04/2020	Mar grande	5:00	0.80	14.5	0.21	Bom	Verde	Saiu
15/04/2020	Mar grande	8:00	1.50	13	0.21	Bom	Verde	Saiu
15/04/2020	Mar grande	13:00	1.20	17	0.21	Bom	Verde	Saiu
15/04/2020	Mar grande	16:30	0.70	19.75	0.21	Bom	Verde	Saiu
15/04/2020	Salvador	6:30	1.10	13.75	0.21	Bom	Verde	Saiu
15/04/2020	Salvador	9:30	1.60	12.25	0.21	Bom	Verde	Saiu
15/04/2020	Salvador	14:30	0.90	19	0.21	Bom	Verde	Saiu
15/04/2020	Salvador	18:00	0.80	22	0.21	Bom	Verde	Saiu
17/04/2020	Mar grande	5:00	0.70	13.5	0.39	Bom	Verde	Saiu
17/04/2020	Mar grande	8:00	0.80	9	0.39	Bom	Vermelho	Não Saiu
17/04/2020	Mar grande	13:00	1.80	13	0.39	Bom	Vermelho	Não Saiu
17/04/2020	Mar grande	16:30	0.80	17	0	Bom	Vermelho	Não Saiu
17/04/2020	Salvador	6:30	0.60	12	0.39	Bom	Vermelho	Saiu
17/04/2020	Salvador	9:30	1.10	8.25	0.39	Bom	Vermelho	Não Saiu
17/04/2020	Salvador	14:30	1.60	15.5	0.39	Bom	Vermelho	Não Saiu
17/04/2020	Salvador	18:00	0.60	17	0	Bom	Vermelho	Não Saiu
20/04/2020	Mar grande	5:00	1.40	16	1.88	Ruim	Vermelho	Não Saiu
20/04/2020	Mar grande	8:00	0.30	12	1.88	Ruim	Vermelho	Não Saiu
20/04/2020	Mar grande	13:00	2.00	13	1.88	Ruim	Vermelho	Não Saiu
20/04/2020	Mar grande	16:30	1.80	17	1.88	Ruim	Vermelho	Não Saiu
20/04/2020	Salvador	6:30	0.70	14.25	1.88	Ruim	Vermelho	Não Saiu
20/04/2020	Salvador	9:30	0.40	10.5	1.88	Ruim	Vermelho	Não Saiu
20/04/2020	Salvador	14:30	2.20	13.75	1.88	Ruim	Vermelho	Não Saiu
20/04/2020	Salvador	18:00	1.00	20	1.88	Ruim	Vermelho	Não Saiu
23/04/2020	Mar grande	5:00	2.00	20	5.83	Ruim	Vermelho	Saiu
23/04/2020	Mar grande	8:00	0.50	20	5.83	Ruim	Vermelho	Saiu
23/04/2020	Mar grande	13:00	1.20	20	5.83	Ruim	Vermelho	Saiu
23/04/2020	Mar grande	16:30	2.30	20.75	5.83	Ruim	Vermelho	Saiu
23/04/2020	Salvador	6:30	1.40	20	5.83	Ruim	Vermelho	Saiu
23/04/2020	Salvador	9:30	0.10	20	5.83	Ruim	Vermelho	Saiu
23/04/2020	Salvador	14:30	2.00	19.25	5.83	Ruim	Vermelho	Saiu
23/04/2020	Salvador	18:00	2.00	23	5.83	Ruim	Vermelho	Saiu
24/04/2020	Mar grande	5:00	2.10	24.5	2.5	Ruim	Vermelho	Saiu
24/04/2020	Mar grande	8:00	0.90	23	2.5	Ruim	Vermelho	Saiu
24/04/2020	Mar grande	13:00	0.90	21.5	2.5	Ruim	Vermelho	Saiu
24/04/2020	Mar grande	16:30	2.20	22.75	2.5	Ruim	Vermelho	Saiu
24/04/2020	Salvador	6:30	1.70	23.75	2.5	Ruim	Vermelho	Saiu
24/04/2020	Salvador	9:30	0.20	22.25	2.5	Ruim	Vermelho	Saiu
24/04/2020	Salvador	14:30	1.60	21.25	2.5	Ruim	Vermelho	Saiu
24/04/2020	Salvador	18:00	2.00	25	2.5	Ruim	Vermelho	Saiu
27/04/2020	Mar grande	5:00	1.80	29	3.33	Ruim	Vermelho	Saiu
27/04/2020	Mar grande	8:00	1.60	31	3.33	Ruim	Vermelho	Saiu
27/04/2020	Mar grande	13:00	0.30	33	3.33	Ruim	Vermelho	Saiu
27/04/2020	Mar grande	16:30	1.70	35.5	3.33	Ruim	Vermelho	Saiu
27/04/2020	Salvador	6:30	1.90	30.25	3.33	Ruim	Vermelho	Saiu
27/04/2020	Salvador	9:30	0.80	31	3.33	Ruim	Vermelho	Saiu
27/04/2020	Salvador	14:30	0.70	34.25	3.33	Ruim	Vermelho	Saiu
27/04/2020	Salvador	18:00	2.00	37	3.33	Ruim	Vermelho	Saiu
28/04/2020	Mar grande	5:00	1.60	31	1.04	Ruim	Vermelho	Saiu
28/04/2020	Mar grande	8:00	1.80	27	1.04	Ruim	Vermelho	Saiu
28/04/2020	Mar grande	13:00	0.40	22.5	1.04	Ruim	Vermelho	Saiu
28/04/2020	Mar grande	16:30	1.40	18	1.04	Ruim	Vermelho	Saiu
28/04/2020	Salvador	6:30	1.80	29.25	1.04	Ruim	Vermelho	Saiu
28/04/2020	Salvador	9:30	1.20	25.5	1.04	Ruim	Vermelho	Saiu
28/04/2020	Salvador	14:30	0.50	20.25	1.04	Ruim	Vermelho	Saiu
28/04/2020	Salvador	18:00	1.90	18	1.04	Ruim	Vermelho	Saiu
30/04/2020	Mar grande	5:00	0.90	30.5	0	Ruim	Vermelho	Saiu
30/04/2020	Mar grande	8:00	1.70	28	0	Ruim	Vermelho	Saiu
30/04/2020	Mar grande	13:00	0.80	21	0.83	Ruim	Vermelho	Saiu
30/04/2020	Mar grande	16:30	0.60	16.25	0.83	Ruim	Vermelho	Saiu
30/04/2020	Salvador	6:30	1.30	29.5	0	Ruim	Vermelho	Saiu
30/04/2020	Salvador	9:30	1.70	25	0	Ruim	Vermelho	Saiu
30/04/2020	Salvador	14:30	0.60	19	0.83	Ruim	Vermelho	Saiu
30/04/2020	Salvador	18:00	1.00	17	0.83	Ruim	Vermelho	Saiu
04/05/2020	Mar grande	5:00	0.60	16.5	0.63	Bom	Amarelo	Saiu
04/05/2020	Mar grande	8:00	0.10	15	0.63	Bom	Amarelo	Saiu
04/05/2020	Mar grande	13:00	2.30	15	0.63	Bom	Amarelo	Saiu
04/05/2020	Mar grande	16:30	1.50	12.5	0.63	Bom	Amarelo	Saiu
04/05/2020	Salvador	6:30	0.10	15.75	0.63	Bom	Amarelo	Saiu
04/05/2020	Salvador	9:30	0.50	15.75	0.63	Bom	Amarelo	Saiu
04/05/2020	Salvador	14:30	2.30	13.5	0.63	Bom	Amarelo	Saiu
04/05/2020	Salvador	18:00	0.50	14	0.63	Bom	Amarelo	Saiu
05/05/2020	Mar grande	5:00	1.10	28.5	0.42	Bom	Amarelo	Saiu
05/05/2020	Mar grande	8:00	0.00	28	0.42	Bom	Amarelo	Saiu
05/05/2020	Mar grande	13:00	2.20	26	0.42	Bom	Amarelo	Saiu
05/05/2020	Mar grande	16:30	2.00	26.25	0.42	Bom	Amarelo	Saiu
05/05/2020	Salvador	6:30	0.20	28	0.42	Bom	Amarelo	Saiu
05/05/2020	Salvador	9:30	0.20	28	0.42	Bom	Amarelo	Saiu
05/05/2020	Salvador	14:30	2.50	26	0.42	Bom	Amarelo	Saiu
05/05/2020	Salvador	18:00	0.90	27	0.42	Bom	Amarelo	Saiu
06/05/2020	Mar grande	5:00	1.70	26	0.25	Bom	Amarelo	Saiu
06/05/2020	Mar grande	8:00	-0.10	25	0.25	Bom	Amarelo	Adiantado
06/05/2020	Mar grande	13:00	2.00	22	0.25	Bom	Amarelo	Saiu
06/05/2020	Mar grande	16:30	2.40	21	0.25	Bom	Amarelo	Saiu
06/05/2020	Salvador	6:30	0.50	25.75	0.25	Bom	Amarelo	Saiu
06/05/2020	Salvador	9:30	-0.10	24.25	0.25	Bom	Amarelo	Atrasado
06/05/2020	Salvador	14:30	2.50	21	0.25	Bom	Amarelo	Saiu
06/05/2020	Salvador	18:00	1.50	21	0.25	Bom	Amarelo	Saiu
08/05/2020	Mar grande	5:00	2.20	12.5	0.83	Ruim	Vermelho	Saiu
08/05/2020	Mar grande	8:00	0.50	9	0.83	Ruim	Vermelho	Saiu
08/05/2020	Mar grande	13:00	0.90	8	0.83	Ruim	Vermelho	Saiu
08/05/2020	Mar grande	16:30	2.50	18.5	0.83	Ruim	Vermelho	Não Saiu
08/05/2020	Salvador	6:30	1.60	10.5	0.83	Ruim	Vermelho	Saiu
08/05/2020	Salvador	9:30	-0.10	7.5	0.83	Ruim	Vermelho	Saiu
08/05/2020	Salvador	14:30	2.00	14	0.83	Ruim	Vermelho	Saiu
08/05/2020	Salvador	18:00	2.30	23	0.83	Ruim	Vermelho	Não Saiu